@startuml
class Posicio {
IP : String
portatil : boolean
}
Alumne "0..*" - "0..*" HoraClasse
(Alumne, HoraClasse) .. Posicio
@enduml

@startuml
class Posicio {
IP : String
portatil : boolean
}
Alumne "1" -- "0..*" Posicio
Posicio "1..*" -- "1" HoraClasse
@enduml

@startuml
Professor "1..*" - "1..*" Grup
(Professor, Grup) .. Imparticio
class Imparticio {
materia
}
@enduml
