@startuml
class Llibre {
-editor : String
-dataPublicacio: Date
-isbn : String
}
class Part {
-títol: String
-número: int
}
class Capítol {
-títol: String
-número: int
-resum: String
}
class Secció {
-títol: String
-número: int
}
Llibre *-- Part
Part *- Capítol
Capítol *- Secció
@enduml
