@startuml
class ActivitatProgramada {
+dataInici : date
+dataFinalitzacio : date
+durada : int
}
class Producte {
+estatus : String
}
<> diamond
Treballador "1..n" -- diamond
Projecte "1" -- diamond
diamond - "1..n" Activitat
Pla "1" . diamond

Treballador "1" <-- "0..n" Pla
Calendari "1" <--o "1" Pla
Activitat <|-- ActivitatProgramada
Calendari "1   " <- "0..n" ActivitatProgramada
ActivitatProgramada <|-- Fita
Producte "0..n" <- "1..n" Fita
@enduml
