@startuml
interface ElementJardi {
+{abstract}getChar(altura : int) : char
+{abstract}temps() : ElementJardi
+{abstract}isViva() : boolean
+{abstract}escampa() : int
}
class Altibus {
+temps() : Llavor
+getChar(altura : int) : char
}
class Declinus {
+temps() : Llavor
+getChar(altura:int) : char
}
class Jardi {
+temps() : void
+toString() : String
+posaElement(nouElement : ElementJardi, pos : int) : boolean
}
class Llavor {
+temps() : Planta
+getChar(altura : int) : char
+isViva() : boolean
+escampa() : int
}
abstract class Planta {
#viva : boolean
#altura : int
+temps() : Llavor
+escampa() : int
+getAltura() : int
+isViva() : boolean
}

Jardi *- ElementJardi : elements
ElementJardi <|.. Llavor
ElementJardi <|.. Planta

Planta <|-- Altibus
Planta <|-- Declinus

Llavor <.. Altibus : crea
Llavor <.. Declinus : crea

Llavor o- Planta : planta
@enduml
