@startuml
class Cataleg{
  +alta(exemplar : Exemplar)
  +baixa(exemplar : Exemplar)
}
enum EstatExemplar{
  disponible
  prestat
  no disponible
}
class Llibre{
  +titol : String
  +autor : String
  +editorial : String
  +isbn : String
}
class Soci{
  +nom : String
  +cognoms : String
  +nSoci : int
}
class Prestec{
  +dataPrestec : date
  +dataRetorn : date
}

Exemplar "0..n" --> "1" Llibre
Cataleg *-- Exemplar
Exemplar -> EstatExemplar : Estat
Soci "1"<-"0..n" Prestec
Prestec "0..n"->"1" Exemplar

@enduml
